{
	"output_path" : "C:\\temp\\workspace\\output\\",
	"inputs":
	[
		{
			"type": "CSV",
			"path": "C:\\temp\\workspace\\input1.csv",
			"x": 200,
			"y": 5000,
			"interval": 4000,
			"id": 10
		},
		{
			"type": "BIN",
			"path": "C:\\temp\\workspace\\input1.bin",
			"x": 10,
			"y": 20,
			"interval": 200,			
			"window_size_sec" : 2
		}
	]
}
		
		