{
	"configurations": 
	[
		{
			"tag": "BINCSVM1",
			"output_path" : "C:/datalab/network/output/",
			"inputs":
			[
				{
					"type": "BIN",
					"path": "C:\\DATALAB/NETWORK\\WORKLOAD\\input1.bin",
					"x": 1000,
					"y": 500,
					"interval": 200,
					"window_size_msec" : 2000
				},
				{
					"type": "CSV",
					"path": "C:\\DATALAB\\NETWORK\\WORKLOAD\\input1.csv",
					"x": 1000,
					"y": 1000,
					"interval": 4000,
					"id": 42
				}
			]
		},
		{
			"tag": "BINCSVM2",
			"output_path" : "C:/datalab/network/output/",
			"inputs":
			[
				{
					"type": "BIN",
					"path": "C:\\DATALAB/NETWORK\\WORKLOAD\\input2.bin",
					"x": 1000,
					"y": 200,
					"interval": 100,
					"window_size_msec" : 2000
				},
				{
					"type": "CSV",
					"path": "C:\\DATALAB\\NETWORK\\WORKLOAD\\input2.csv",
					"x": 1000,
					"y": 1000,
					"interval": 4000,
					"id": 42
				}
			]
		},
		{
			"tag": "BINCSVM3",
			"output_path" : "C:/datalab/network/output/",
			"inputs":
			[
				{
					"type": "BIN",
					"path": "C:\\DATALAB/NETWORK\\WORKLOAD\\input3.bin",
					"x": 1000,
					"y": 500,
					"interval": 200,
					"window_size_msec" : 4000
				},
				{
					"type": "CSV",
					"path": "C:\\DATALAB\\NETWORK\\WORKLOAD\\input3.csv",
					"x": 1000,
					"y": 1000,
					"interval": 4000,
					"id": 42
				}
			]
		},
		{
			"tag": "BINCSVH1",
			"output_path" : "C:/datalab/network/output/",
			"inputs":
			[
				{
					"type": "BIN",
					"path": "C:\\DATALAB/NETWORK\\WORKLOAD\\input4.bin",
					"x": 1000,
					"y": 500,
					"interval": 200,
					"window_size_msec" : 2000
				},
				{
					"type": "CSV",
					"path": "C:\\DATALAB\\NETWORK\\WORKLOAD\\input4.csv",
					"x": 1000,
					"y": 2000,
					"interval": 4000,
					"id": 42
				}
			]
		},
		{
			"tag": "BINCSVH2",
			"output_path" : "C:/datalab/network/output/",
			"inputs":
			[
				{
					"type": "BIN",
					"path": "C:\\DATALAB/NETWORK\\WORKLOAD\\input5.bin",
					"x": 500,
					"y": 100,
					"interval": 50,
					"window_size_msec" : 2000
				},
				{
					"type": "CSV",
					"path": "C:\\DATALAB\\NETWORK\\WORKLOAD\\input5.csv",
					"x": 1000,
					"y": 1000,
					"interval": 4000,
					"id": 42
				}
			]
		},
		{
			"tag": "BINCSVH3",
			"output_path" : "C:/datalab/network/output/",
			"inputs":
			[
				{
					"type": "BIN",
					"path": "C:\\DATALAB/NETWORK\\WORKLOAD\\input6.bin",
					"x": 2000,
					"y": 1000,
					"interval": 500,
					"window_size_msec" : 2000
				},
				{
					"type": "CSV",
					"path": "C:\\DATALAB\\NETWORK\\WORKLOAD\\input6.csv",
					"x": 1000,
					"y": 2000,
					"interval": 4000,
					"id": 42
				}
			]
		},
		{
			"tag": "BINCSVL1",
			"output_path" : "C:/datalab/network/output/",
			"inputs":
			[
				{
					"type": "BIN",
					"path": "C:\\DATALAB/NETWORK\\WORKLOAD\\input7.bin",
					"x": 500,
					"y": 500,
					"interval": 200,
					"window_size_msec" : 2000
				},
				{
					"type": "CSV",
					"path": "C:\\DATALAB\\NETWORK\\WORKLOAD\\input7.csv",
					"x": 1000,
					"y": 1000,
					"interval": 4000,
					"id": 42
				}
			]
		},
		{
			"tag": "BINCSVL2",
			"output_path" : "C:/datalab/network/output/",
			"inputs":
			[
				{
					"type": "BIN",
					"path": "C:\\DATALAB/NETWORK\\WORKLOAD\\input8.bin",
					"x": 500,
					"y": 500,
					"interval": 200,
					"window_size_msec" : 2000
				},
				{
					"type": "CSV",
					"path": "C:\\DATALAB\\NETWORK\\WORKLOAD\\input8.csv",
					"x": 1000,
					"y": 500,
					"interval": 4000,
					"id": 42
				}
			]
		},
		{
			"tag": "BINCSVL3",
			"output_path" : "C:/datalab/network/output/",
			"inputs":
			[
				{
					"type": "BIN",
					"path": "C:\\DATALAB/NETWORK\\WORKLOAD\\input9.bin",
					"x": 10000,
					"y": 10,
					"interval": 200,
					"window_size_msec" : 2000
				},
				{
					"type": "CSV",
					"path": "C:\\DATALAB\\NETWORK\\WORKLOAD\\input9.csv",
					"x": 50,
					"y": 1000,
					"interval": 4000,
					"id": 42
				}
			]
		},
		{
			"tag": "BINL1",
			"output_path" : "C:/datalab/network/output/",
			"inputs":
			[
				{
					"type": "BIN",
					"path": "C:\\DATALAB/NETWORK\\WORKLOAD\\input10.bin",
					"x": 500,
					"y": 500,
					"interval": 200,
					"window_size_msec" : 2000
				}
			]
		},
		{
		
			"tag": "BINM1",
			"output_path" : "C:/datalab/network/output/",
			"inputs":
			[
				{
					"type": "BIN",
					"path": "C:\\DATALAB/NETWORK\\WORKLOAD\\input11.bin",
					"x": 1000,
					"y": 500,
					"interval": 200,
					"window_size_msec" : 2000
				}
			]
		},
		{		
			"tag": "BINH1",
			"output_path" : "C:/datalab/network/output/",
			"inputs":
			[
				{
					"type": "BIN",
					"path": "C:\\DATALAB/NETWORK\\WORKLOAD\\input12.bin",
					"x": 2000,
					"y": 500,
					"interval": 200,
					"window_size_msec" : 2000
				}
			]
		},
		{
			"tag": "CSVL1",
			"output_path" : "C:/datalab/network/output/",
			"inputs":
			[
				{
					"type": "CSV",
					"path": "C:\\DATALAB\\NETWORK\\WORKLOAD\\input10.csv",
					"x": 50,
					"y": 1000,
					"interval": 4000,
					"id": 42
				}
			]
		},
		{
			"tag": "CSVM1",
			"output_path" : "C:/datalab/network/output/",
			"inputs":
			[
				{
					"type": "CSV",
					"path": "C:\\DATALAB\\NETWORK\\WORKLOAD\\input11.csv",
					"x": 1000,
					"y": 1000,
					"interval": 4000,
					"id": 42
				}
			]
		},
		{
			"tag": "CSVH1",
			"output_path" : "C:/datalab/network/output/",
			"inputs":
			[
				{
					"type": "CSV",
					"path": "C:\\DATALAB\\NETWORK\\WORKLOAD\\input12.csv",
					"x": 1000,
					"y": 2000,
					"interval": 4000,
					"id": 42
				}
			]
		}
	]
}
			